{"confiteor_dominicain":
 {"titre":"Confiteor",
  "texte":"<p>Je confesse à Dieu tout-puissant,<br/>
À la bienheureuse Marie toujours vierge,<br/>
À notre Père Saint Dominique,<br/>
À tous les saints et à vous mes freres et mes soeurs<br/>
Que j'ai beaucoup péché,<br/>
Par pensée, par parole, par action et par omission.<br/>
C'est ma faute.<br/>
Je vous demande de prier pour moi.<br/></p>

<p><i>(silence pour confier la journée passée)</i><br/></p>

<p>Que Dieu tout-puissant nous fasse miséricode,<br/>
Qu'Il nous pardonne nos péchés,<br/>
Nous délivre de tout mal,<br/>
Qu'Il nous garde<br/>
Et qu'Il nous affermisse dans le bien,<br/>
Et qu'Il nous conduise à la vie éternelle.</p>"}
 ,
  "deroulement":
  [{"type":2,
    "key":"confiteor_dominicain"}
  ]
}
