{"informations":{
    "zone":"{france}"
},
 "credo_apotres":{"titre":"Credo : Symbole des Apôtres",
     "texte":"<p>Je crois en Dieu, le Père tout-puissant,<br />
Créateur du ciel et de la terre.<br />
Et en Jésus Christ, son Fils unique, notre Seigneur ;<br />
qui a été conçu du Saint Esprit, est né de la Vierge Marie,<br />
a souffert sous Ponce Pilate, a été crucifié,<br />
est mort et a été enseveli, est descendu aux enfers ;<br />
le troisième jour est ressuscité des morts,<br />
est monté aux cieux, est assis à la droite de Dieu le Père tout-puissant,<br />
d&rsquo;où il viendra juger les vivants et les morts.<br />
Je crois en l&rsquo;Esprit Saint, à la sainte Église catholique, à la communion des saints,<br />
à la rémission des péchés, à la résurrection de la chair, à la vie éternelle.</p>
<p>Amen</p>"
	   },
 "deroulement":[
     {"type":2,"key":"credo_apotres"}
     ]
}