{"informations":{
    "zone":"{france}"
},
 "credo_nicee":{"titre":"Credo de Nicée-Constantinople",
     "texte":"<p>Je crois en un seul Dieu, le Père tout puissant,<br />
créateur du du ciel et de la terre, de l&rsquo;univers visible et invisible,<br />
Je crois en un seul Seigneur, Jésus Christ,<br />
le Fils unique de Dieu, né du Père avant tous les siècles :<br />
Il est Dieu, né de Dieu,<br />
lumière, née de la lumière,<br />
vrai Dieu, né du vrai Dieu<br />
Engendré non pas créé,<br />
consubstantiel au Père ;<br />
et par lui tout a été fait.<br />
Pour nous les hommes, et pour notre salut,<br />
il descendit du ciel;<br />
Par l&rsquo;Esprit Saint, il a pris chair de la Vierge Marie, et s&rsquo;est fait homme.<br />
Crucifié pour nous sous Ponce Pilate,<br />
Il souffrit sa passion et fut mis au tombeau.<br />
Il ressuscita le troisième jour,<br />
conformément aux Ecritures, et il monta au ciel;<br />
il est assis à la droite du Père.<br />
Il reviendra dans la gloire, pour juger les vivants et les morts<br />
et son règne n&rsquo;aura pas de fin.<br />
Je crois en l&rsquo;Esprit Saint, qui est Seigneur et qui donne la vie;<br />
il procède du Père et du Fils.<br />
Avec le Père et le Fils, il reçoit même adoration et même gloire;<br />
il a parlé par les prophètes.</p>
<p>Je crois en l&rsquo;Eglise, une, sainte, catholique et apostolique.<br />
Je reconnais un seul baptême pour le pardon des péchés.<br />
J&rsquo;attends la résurrection des morts, et la vie du monde à venir.</p>
<p>Amen</p>"
	   },
 "deroulement":[
     {"type":2,"key":"credo_nicee"}
     ]
}