{"doxologie_court":
 "<p>V/Gloire au Père, et au Fils, et au Saint-Esprit<br/>
R/Pour les siècles des siècles.<br/>
Amen.</p>",
 "deroulement":[
     {"type":0, "key":"doxologie_court","name":null}
 ]
}
