{"deroulement":[
    {"key":"introduction","type":0,"name":"Introduction"},
    {"key":null},
    {"key":"antienne_invitatoire","type":0, "name":"Antienne"},
    {"key":"psaume_invitatoire","type":3,"name":"Psaume"},
    {"key":"antienne_invitatoire","type":0, "name":"Antienne"},
    {"key":null},
    {"key":"hymne","type":1,"name":"Hymne"},
    {"key":null},
    {"key":"antienne_1","type":0, "name":"Antienne"},
    {"key":"psaume_1","type":3,"name":"Psaume"},
    {"key":"antienne_1","type":0, "name":"Antienne"},
    {"key":null},
    {"key":"antienne_2","type":0, "name":"Antienne"},
    {"key":"psaume_2","type":3,"name":"Psaume"},
    {"key":"antienne_2","type":0, "name":"Antienne"},
    {"key":null},
    {"key":"antienne_3","type":0, "name":"Antienne"},
    {"key":"psaume_3","type":3,"name":"Psaume"},
    {"key":"antienne_3","type":0, "name":"Antienne"},
    {"key":null},
    {"key":"pericope", "type":3, "name":"Parole de Dieu"},
    {"key":"repons","type":0,"name":"Répons"},
    {"key":null},
    {"key":"antienne_zacharie","type":0,"name":"Antienne"},
    {"key":"cantique_zacharie","type":2},
    {"key":null},
    {"key":"intercession","type":0, "name":"Intercession"},
    {"key":"notre_pere","type":0, "name":"Notre Père"},
    {"key":"oraison","type":0,"name":"Oraison"},
    {"key":"benediction_laic1","type":10,"name":"Bénédiction"}
]}
